......
----------------------------------------------------------------------
Ran 6 tests in 0.008s

OK
Name               Stmts   Miss Branch BrPart  Cover   Missing
--------------------------------------------------------------
Diplomacy.py          66      0     34      0   100%
TestDiplomacy.py      34      0      0      0   100%
--------------------------------------------------------------
TOTAL                100      0     34      0   100%
