Name               Stmts   Miss Branch BrPart  Cover   Missing
--------------------------------------------------------------
Diplomacy.py          38      0     28      0   100%
TestDiplomacy.py      24      0      0      0   100%
--------------------------------------------------------------
TOTAL                 62      0     28      0   100%
