...............
----------------------------------------------------------------------
Ran 15 tests in 0.001s

OK
Name               Stmts   Miss Branch BrPart  Cover   Missing
--------------------------------------------------------------
Diplomacy.py          87      0     68      0   100%
TestDiplomacy.py      76      0      0      0   100%
--------------------------------------------------------------
TOTAL                163      0     68      0   100%