...
----------------------------------------------------------------------
Ran 3 tests in 0.000s

OK
Name               Stmts   Miss Branch BrPart  Cover   Missing
--------------------------------------------------------------
Diplomacy.py          71      0     34      0   100%
TestDiplomacy.py      21      0      0      0   100%
--------------------------------------------------------------
TOTAL                 92      0     34      0   100%
